module gitlab.com/keyvalue/build-doer

require (
	github.com/SophisticaSean/easyssh v1.0.3
	github.com/alecthomas/gometalinter v3.0.0+incompatible // indirect
	github.com/alecthomas/units v0.0.0-20151022065526-2efee857e7cf // indirect
	github.com/cosiner/argv v0.0.1 // indirect
	github.com/cpuguy83/go-md2man v1.0.10 // indirect
	github.com/davidrjenni/reftools v0.0.0-20190411195930-981bbac422f8 // indirect
	github.com/dustinkirkland/golang-petname v0.0.0-20170921220637-d3c2ba80e75e
	github.com/fatih/gomodifytags v0.0.0-20180914191908-141225bf62b6 // indirect
	github.com/fatih/motion v0.0.0-20180408211639-218875ebe238 // indirect
	github.com/go-delve/delve v1.2.0 // indirect
	github.com/google/shlex v0.0.0-20181106134648-c34317bd91bf // indirect
	github.com/josharian/impl v0.0.0-20180228163738-3d0f908298c4 // indirect
	github.com/jstemmer/gotags v1.4.1 // indirect
	github.com/keegancsmith/rpc v1.1.0 // indirect
	github.com/kisielk/errcheck v1.2.0 // indirect
	github.com/klauspost/asmfmt v1.2.0 // indirect
	github.com/konsorten/go-windows-terminal-sequences v1.0.2 // indirect
	github.com/koron/iferr v0.0.0-20180615142939-bb332a3b1d91 // indirect
	github.com/mattn/go-colorable v0.1.1 // indirect
	github.com/mattn/go-isatty v0.0.7 // indirect
	github.com/mattn/go-runewidth v0.0.4 // indirect
	github.com/mdempsky/gocode v0.0.0-20190203001940-7fb65232883f // indirect
	github.com/nicksnyder/go-i18n v1.10.0 // indirect
	github.com/packethost/packngo v0.1.0
	github.com/pelletier/go-toml v1.3.0 // indirect
	github.com/peterh/liner v1.1.0 // indirect
	github.com/pkg/profile v1.3.0 // indirect
	github.com/rogpeppe/godef v1.1.1 // indirect
	github.com/russross/blackfriday v2.0.0+incompatible // indirect
	github.com/sirupsen/logrus v1.4.1 // indirect
	github.com/spf13/cobra v0.0.3 // indirect
	github.com/spf13/pflag v1.0.3 // indirect
	github.com/stamblerre/gocode v0.0.0-20190327203809-810592086997 // indirect
	github.com/stretchr/objx v0.2.0 // indirect
	github.com/zmb3/gogetdoc v0.0.0-20190228002656-b37376c5da6a // indirect
	go.etcd.io/bbolt v1.3.2
	golang.org/x/arch v0.0.0-20190312162104-788fe5ffcd8c // indirect
	golang.org/x/crypto v0.0.0-20190418165655-df01cb2cc480
	golang.org/x/lint v0.0.0-20190409202823-959b441ac422 // indirect
	golang.org/x/net v0.0.0-20190420063019-afa5a82059c6 // indirect
	golang.org/x/sys v0.0.0-20190419153524-e8e3143a4f4a // indirect
	golang.org/x/tools v0.0.0-20190420181800-aa740d480789 // indirect
	gopkg.in/alecthomas/kingpin.v3-unstable v3.0.0-20180810215634-df19058c872c // indirect
	gopkg.in/check.v1 v1.0.0-20180628173108-788fd7840127 // indirect
	honnef.co/go/tools v0.0.0-20190418001031-e561f6794a2a // indirect
)
